1;39;71;69;73;74;38
2;59;62;8;51;77;60;80
3;18;58;71;42;63;23
4;5;84;83;6
5;4;26;38
6;4;83;20
7;43;42;26;84;30;48
8;2;51;55
9;31;11;66
10;77;51;52;21;89
11;66;09;31;81;34
12;48;34;81;82;46;15;30
13;30;84;83
14;50;61;27
15;19;63;43;48;12;46
16;17;79;86;87;24;33
17;85;79;16;33
18;36;41;45;58;03;23
19;15;46;24;87;23;63
20;6;83
21;89;10;52;70;25;39;71;58
22;29;56;35
23;87;36;18;3;63;19
24;16;87;19;46;47;33
25;39;21;70;90
26;7;84;5;38;42
27;61;14;76;60;95;78;28
28;72;61;27;78;91;45;41
29;22;56
30;34;13;84;7;48;12
31;81;11;9;65;32;82;81
32;40;64;65;31;82;47
33;40;47;24;16;17
34;11;81;12;30;48
35;56;22;50;53;44
36;23;87;86;37;41;18
37;86;49;72;41;36
38;5;26;69;73;1
39;1;21;25;71
40;64;32;47;33
41;18;36;37;72;28;45
42;69;26;7;43;63;3
43;7;48;15;63;42
44;56;35;49;85
45;28;91;77;89;18;41
46;15;12;82;47;24;19
47;40;33;24;46;82;32
48;7;30;34;12;15;43
49;44;53;72;37;79;85;86
50;35;14;53;61
51;77;2;8;55;52;10
52;70;21;10;51;55;88
53;35;50;61;72;49
54;55;57;67;88
55;54;57;8;51;52;88
56;29;22;35;44
57;55;54;67
58;3;18;89;21;71
59;62;2
60;95;27;76;80;2
61;72;53;50;14;27;28
62;59;02;80
63;42;43;15;19;23;3
64;40;32;65
65;64;32;31
66;9;11
67;57;54;88;68
68;90;88;67;70
69;42;71;1;38
70;90;25;21;52;88;68
71;1;69;3;58;21;39
72;61;28;41;37;49;53
73;1;74;38
74;1;73
75;95;78;91;77
76;27;60;80
77;91;75;2;51;10;89;45
78;75;91;95;27;28
79;85;49;86;16;17
80;62;2;60;76
81;82;12;34;11;31
82;81;31;32;47;46;12
83;6;13;4;20
84;13;30;7;26;4
85;44;49;79;17
86;79;16;49;37;36;87
87;86;16;24;23;19;36
88;67;68;70;52;55;54
89;77;10;21;58;45
90;68;70;25
91;78;75;77;28;45
92;;;;;;;
93;;;;;;;
94;;;;;;;
95;60;78;75;27
